%YAML 1.1
%TAG !u! tag:unity3d.com,2011:
--- !u!114 &11400000
MonoBehaviour:
  m_ObjectHideFlags: 0
  m_PrefabParentObject: {fileID: 0}
  m_PrefabInternal: {fileID: 0}
  m_GameObject: {fileID: 0}
  m_Enabled: 1
  m_EditorHideFlags: 0
  m_Script: {fileID: 11500000, guid: 9f3758f8f58fdef43803eb9be1df0608, type: 3}
  m_Name: PhotonServerSettings
  m_EditorClassIdentifier: 
  HostType: 1
  Protocol: 0
  ServerAddress: 
  ServerPort: 5055
  AppID: 15cf17b0-b0f4-4d07-b247-e2affcefafdd
  PreferredRegion: 5
  EnabledRegions: -1
  JoinLobby: 0
  EnableLobbyStatistics: 0
  RpcList:
  - Chat
  - DestroyRpc
  - InstantiateRpc
  - OnAwakeRPC
  - PickupItemInit
  - PunPickup
  - PunPickupSimple
  - PunRespawn
  - RequestForPickupTimes
  - SpawnBullet
  - Hello
  - KillMe
  - SetCamera
  - NotifyDeath
  - CollisionGrowSize
  - DestroyPlayer
  - BulletDeath
  - BulletNotice
  DisableAutoOpenWizard: 1
